newmtl Plane005SG1
illum 4
Kd 0.59 0.59 0.59
Ka 0.59 0.59 0.59
Tf 1.00 1.00 1.00
Ni 1.00
Ks 0.00 0.00 0.00
Ns 0.00
newmtl initialShadingGroup
illum 4
Kd 0.00 0.00 0.00
Ka 0.00 0.00 0.00
Tf 1.00 1.00 1.00
map_Kd polySurfaceShape1_color.psd
Ni 1.00
